Array
(
    [SITE_ID] => s1
    [LID] => s1
    [PERSON_TYPE_ID] => 1
    [PRICE] => 30500
    [CURRENCY] => RUB
    [USER_ID] => 1
    [PAY_SYSTEM_ID] => 1
    [PRICE_DELIVERY] => 500
    [DELIVERY_ID] => 2
    [DISCOUNT_VALUE] => 0
    [TAX_VALUE] => 0
    [TRACKING_NUMBER] => 
    [PAYED] => N
    [CANCELED] => N
    [STATUS_ID] => N
    [RESERVED] => 
)
